<svg width="5" height="5" viewBox="0 0 5 5" fill="none" xmlns="http://www.w3.org/2000/svg">
<g id="Rectangle 67">
<rect id="Rectangle 62" x="0.0999756" y="0.125" width="4" height="4" rx="1" fill="url(#paint0_linear_111_14378)"/>
</g>
<defs>
<linearGradient id="paint0_linear_111_14378" x1="-2.12502" y1="-2.65278" x2="4.85908" y2="-1.82297" gradientUnits="userSpaceOnUse">
<stop stop-color="#F64D4D"/>
<stop offset="1" stop-color="#4D5EF6"/>
</linearGradient>
</defs>
</svg>
